<svg width="1024" height="512" viewBox="0 0 1024 512" fill="none" xmlns="http://www.w3.org/2000/svg">
<rect width="1024" height="512" fill="#F5007E"/>
<path d="M669.143 343.143H390.199C380.665 343.143 372.857 335.265 372.857 325.557V151.429C372.857 146.806 371.021 142.373 367.753 139.105C364.484 135.836 360.051 134 355.429 134C350.806 134 346.373 135.836 343.105 139.105C339.836 142.373 338 146.806 338 151.429V325.557C337.977 339.431 343.461 352.746 353.248 362.579C363.035 372.412 376.325 377.958 390.199 378H669.143C673.765 378 678.198 376.164 681.467 372.895C684.735 369.627 686.572 365.194 686.572 360.571C686.572 355.949 684.735 351.516 681.467 348.248C678.198 344.979 673.765 343.143 669.143 343.143ZM616.857 203.714V256C616.857 260.622 618.693 265.055 621.962 268.324C625.23 271.592 629.663 273.429 634.286 273.429C638.908 273.429 643.341 271.592 646.61 268.324C649.878 265.055 651.714 260.622 651.714 256V186.286C651.714 181.663 649.878 177.23 646.61 173.962C643.341 170.693 638.908 168.857 634.286 168.857H564.571C559.949 168.857 555.516 170.693 552.248 173.962C548.979 177.23 547.143 181.663 547.143 186.286C547.143 190.908 548.979 195.341 552.248 198.61C555.516 201.878 559.949 203.714 564.571 203.714H616.857Z" fill="white"/>
<path d="M534.821 285.751C538.089 289.018 542.522 290.853 547.143 290.853C551.764 290.853 556.197 289.018 559.465 285.751L629.179 216.036C630.844 214.429 632.172 212.505 633.085 210.379C633.998 208.253 634.479 205.966 634.499 203.652C634.519 201.337 634.078 199.042 633.202 196.901C632.326 194.759 631.032 192.813 629.395 191.176C627.759 189.54 625.813 188.246 623.671 187.369C621.529 186.493 619.234 186.052 616.92 186.072C614.606 186.092 612.319 186.573 610.192 187.487C608.066 188.4 606.143 189.728 604.535 191.392L547.143 248.785L507.179 208.821C503.911 205.554 499.479 203.718 494.857 203.718C490.236 203.718 485.804 205.554 482.535 208.821L412.821 278.535C409.646 281.822 407.889 286.225 407.929 290.794C407.969 295.364 409.802 299.735 413.033 302.967C416.265 306.198 420.636 308.031 425.206 308.071C429.775 308.111 434.178 306.354 437.465 303.179L494.857 245.787L534.821 285.751Z" fill="white"/>
</svg>
