<svg width="1024" height="512" viewBox="0 0 1024 512" fill="none" xmlns="http://www.w3.org/2000/svg">
<rect width="1024" height="512" fill="#F5007E"/>
<path d="M366 176L331.359 116L400.641 116L366 176Z" fill="white"/>
<path d="M366 176L331.359 116L400.641 116L366 176Z" fill="white"/>
<path d="M366 176L331.359 116L400.641 116L366 176Z" fill="white"/>
<rect x="422" y="156" width="40" height="220" transform="rotate(-90 422 156)" fill="white"/>
<path d="M390 296L355.359 236H424.641L390 296Z" fill="white"/>
<path d="M390 296L355.359 236H424.641L390 296Z" fill="white"/>
<path d="M390 296L355.359 236H424.641L390 296Z" fill="white"/>
<rect x="446" y="276" width="40" height="200" transform="rotate(-90 446 276)" fill="white"/>
<path d="M414 416L379.359 356H448.641L414 416Z" fill="white"/>
<path d="M414 416L379.359 356H448.641L414 416Z" fill="white"/>
<path d="M414 416L379.359 356H448.641L414 416Z" fill="white"/>
<rect x="470" y="396" width="40" height="180" transform="rotate(-90 470 396)" fill="white"/>
</svg>
